{
    "policy_groups": [
        "networking",
        "accounts",
        "audio",
        "content_exchange",
        "video",
        "keep-display-on",
        "webview"
    ],
    "policy_version": 16.04
}
